{
    "name": "PlayerInputActions",
    "maps": [
        {
            "name": "Game",
            "id": "02e127b5-87ec-4df3-adf3-9e1de31fc8a4",
            "actions": [
                {
                    "name": "Up",
                    "type": "Button",
                    "id": "577a757b-4bfe-4262-b61b-9d76096ecb32",
                    "expectedControlType": "Button",
                    "processors": "",
                    "interactions": "",
                    "initialStateCheck": false
                },
                {
                    "name": "Down",
                    "type": "Button",
                    "id": "a1744b49-5608-41e3-8c19-46b2cf8ee09c",
                    "expectedControlType": "Button",
                    "processors": "",
                    "interactions": "",
                    "initialStateCheck": false
                },
                {
                    "name": "Left",
                    "type": "Button",
                    "id": "75c0818f-cc29-4abb-9c50-a716eec8e35f",
                    "expectedControlType": "Button",
                    "processors": "",
                    "interactions": "",
                    "initialStateCheck": false
                },
                {
                    "name": "Right",
                    "type": "Button",
                    "id": "475d89fc-6d8b-452f-bb0f-8dea9622d038",
                    "expectedControlType": "Button",
                    "processors": "",
                    "interactions": "",
                    "initialStateCheck": false
                }
            ],
            "bindings": [
                {
                    "name": "",
                    "id": "1edc6131-250a-491e-8ba2-0916ac40d1bf",
                    "path": "<Keyboard>/w",
                    "interactions": "",
                    "processors": "",
                    "groups": "New control scheme",
                    "action": "Up",
                    "isComposite": false,
                    "isPartOfComposite": false
                },
                {
                    "name": "",
                    "id": "3d145cba-fa3a-4d58-a01e-0ebf3a4e61d5",
                    "path": "<Keyboard>/upArrow",
                    "interactions": "",
                    "processors": "",
                    "groups": "",
                    "action": "Up",
                    "isComposite": false,
                    "isPartOfComposite": false
                },
                {
                    "name": "",
                    "id": "c6e8896f-042b-4471-88c5-a468c3e082d6",
                    "path": "<Keyboard>/s",
                    "interactions": "",
                    "processors": "",
                    "groups": "New control scheme",
                    "action": "Down",
                    "isComposite": false,
                    "isPartOfComposite": false
                },
                {
                    "name": "",
                    "id": "bc2ed582-ebac-49e0-9ce6-f41a2461f1d5",
                    "path": "<Keyboard>/downArrow",
                    "interactions": "",
                    "processors": "",
                    "groups": "",
                    "action": "Down",
                    "isComposite": false,
                    "isPartOfComposite": false
                },
                {
                    "name": "",
                    "id": "9f65105b-7a63-439c-9bc8-6570616ce0c3",
                    "path": "<Keyboard>/a",
                    "interactions": "",
                    "processors": "",
                    "groups": "New control scheme",
                    "action": "Left",
                    "isComposite": false,
                    "isPartOfComposite": false
                },
                {
                    "name": "",
                    "id": "1bbd2715-c66f-4c3d-8410-6895bba43c03",
                    "path": "<Keyboard>/leftArrow",
                    "interactions": "",
                    "processors": "",
                    "groups": "",
                    "action": "Left",
                    "isComposite": false,
                    "isPartOfComposite": false
                },
                {
                    "name": "",
                    "id": "0cc11fd7-46b7-4028-bea6-9282505f5296",
                    "path": "<Keyboard>/d",
                    "interactions": "",
                    "processors": "",
                    "groups": "New control scheme",
                    "action": "Right",
                    "isComposite": false,
                    "isPartOfComposite": false
                },
                {
                    "name": "",
                    "id": "94300b6b-5c17-4ac3-b7fd-3a3bfdc2ccba",
                    "path": "<Keyboard>/rightArrow",
                    "interactions": "",
                    "processors": "",
                    "groups": "",
                    "action": "Right",
                    "isComposite": false,
                    "isPartOfComposite": false
                }
            ]
        }
    ],
    "controlSchemes": [
        {
            "name": "New control scheme",
            "bindingGroup": "New control scheme",
            "devices": [
                {
                    "devicePath": "<Keyboard>",
                    "isOptional": false,
                    "isOR": false
                }
            ]
        }
    ]
}